366,2452
276,1808
1616,2784
1920,2944
228,792
1524,2540
1000,2440
472,2212
272,328
1860,2456
292,124
1320,2356
784,2436
192,2368
1832,2704
1176,2960
1564,2076
532,1020
964,2100
576,2468
1756,2992
1828,2088
260,2228
792,2648
556,1432
1564,2264
960,2784
220,588
216,948
1044,1764
276,1208
1000,2644
1792,2280
1164,2736
172,1136
1540,2984
352,2840
152,2188
1440,2788
440,764
1920,2272
828,2928
532,1868
164,2020
